Experimental Design and Probability
…
dat <- dat %>% 
  mutate(stability_log = log(biomassStability)) # natural log (base e)
dat

## # A tibble: 161 x 3
##    nSpecies biomassStability stability_log
##       <int>            <dbl>         <dbl>
##  1        1           1755.           7.47
##  2        1            846.           6.74
##  3        1            742.           6.61
##  4        1            602.           6.4 
##  5        1            290.           5.67
##  6        1            192.           5.26
##  7        1            122.           4.80
##  8        1             81.5          4.40
##  9        1             81.5          4.40
## 10        1             70.8          4.26
## #  with 151 more rows
…
